{
    "key": "group_6139c35b43e1a",
    "title": "קירותים\/מאמרים?",
    "fields": [
        {
            "key": "field_6139c368f85a5",
            "label": "קירותים\/מאמרים?",
            "name": "type",
            "type": "radio",
            "instructions": "",
            "required": 0,
            "conditional_logic": 0,
            "wrapper": {
                "width": "",
                "class": "",
                "id": ""
            },
            "choices": {
                "post": "post",
                "service": "service"
            },
            "allow_null": 0,
            "other_choice": 0,
            "default_value": "",
            "layout": "vertical",
            "return_format": "value",
            "wpml_cf_preferences": 3,
            "save_other_choice": 0
        }
    ],
    "location": [
        [
            {
                "param": "page_template",
                "operator": "==",
                "value": "views\/blog.php"
            }
        ]
    ],
    "menu_order": 0,
    "position": "acf_after_title",
    "style": "default",
    "label_placement": "top",
    "instruction_placement": "label",
    "hide_on_screen": "",
    "active": true,
    "description": "",
    "modified": 1631175583
}